LBIST/run/riscv_core_dumpports.vcd
$comment
	File created using the following command:
		vcd file riscv_core_dumpports.vcd -dumpports
$end
$date
	Sun Dec 19 11:13:55 2021
$end
$version
	dumpports QuestaSim Version 10.5c_4
$end
$timescale
	1ns
$end

$scope module lbist_testbench $end

$scope module dut $end
$var port [31:0] <0 boot_addr_i $end
$var port [3:0] <1 core_id_i $end
$var port [5:0] <2 cluster_id_i $end
$var port [31:0] <3 instr_addr_o $end
$var port [127:0] <4 instr_rdata_i $end
$var port [3:0] <5 data_be_o $end
$var port [31:0] <6 data_addr_o $end
$var port [31:0] <7 data_wdata_o $end
$var port [31:0] <8 data_rdata_i $end
$var port [95:0] <9 apu_master_operands_o $end
$var port [5:0] <10 apu_master_op_o $end
$var port [1:2] <11 apu_master_type_o $end
$var port [14:0] <12 apu_master_flags_o $end
$var port [31:0] <13 apu_master_result_i $end
$var port [4:0] <14 apu_master_flags_i $end
$var port [4:0] <15 irq_id_i $end
$var port [4:0] <16 irq_id_o $end
$var port [1:2] <17 ext_perf_counters_i $end
$var port 1 <18 clk_i $end
$var port 1 <19 rst_ni $end
$var port 1 <20 clock_en_i $end
$var port 1 <21 test_en_i $end
$var port 1 <22 fregfile_disable_i $end
$var port 1 <23 instr_gnt_i $end
$var port 1 <24 instr_rvalid_i $end
$var port 1 <25 data_gnt_i $end
$var port 1 <26 data_rvalid_i $end
$var port 1 <27 apu_master_gnt_i $end
$var port 1 <28 apu_master_valid_i $end
$var port 1 <29 irq_i $end
$var port 1 <30 irq_sec_i $end
$var port 1 <31 debug_req_i $end
$var port 1 <32 fetch_enable_i $end
$var port 1 <33 test_si1 $end
$var port 1 <34 test_si2 $end
$var port 1 <35 test_si3 $end
$var port 1 <36 test_si4 $end
$var port 1 <37 test_si5 $end
$var port 1 <38 test_si6 $end
$var port 1 <39 test_si7 $end
$var port 1 <40 test_si8 $end
$var port 1 <41 test_si9 $end
$var port 1 <42 test_si10 $end
$var port 1 <43 test_si11 $end
$var port 1 <44 test_si12 $end
$var port 1 <45 test_si13 $end
$var port 1 <46 test_si14 $end
$var port 1 <47 test_si15 $end
$var port 1 <48 test_si16 $end
$var port 1 <49 test_se $end
$var port 1 <50 test_mode $end
$var port 1 <51 instr_req_o $end
$var port 1 <52 data_req_o $end
$var port 1 <53 data_we_o $end
$var port 1 <54 apu_master_req_o $end
$var port 1 <55 apu_master_ready_o $end
$var port 1 <56 irq_ack_o $end
$var port 1 <57 sec_lvl_o $end
$var port 1 <58 core_busy_o $end
$var port 1 <59 test_so1 $end
$var port 1 <60 test_so2 $end
$var port 1 <61 test_so3 $end
$var port 1 <62 test_so4 $end
$var port 1 <63 test_so5 $end
$var port 1 <64 test_so6 $end
$var port 1 <65 test_so7 $end
$var port 1 <66 test_so8 $end
$var port 1 <67 test_so9 $end
$var port 1 <68 test_so10 $end
$var port 1 <69 test_so11 $end
$var port 1 <70 test_so12 $end
$var port 1 <71 test_so13 $end
$var port 1 <72 test_so14 $end
$var port 1 <73 test_so15 $end
$var port 1 <74 test_so16 $end
$upscope $end
$upscope $end
$enddefinitions $end
#0
$dumpports
pU 0 6 <18
pD 6 0 <19
pU 0 6 <20
pN 6 6 <21
pZ 0 0 <22
pL 6 0 <51
pZ 0 0 <23
pZ 0 0 <24
pL 6 0 <52
pZ 0 0 <25
pZ 0 0 <26
pL 6 0 <53
pL 6 0 <54
pH 0 6 <55
pZ 0 0 <27
pZ 0 0 <28
pZ 0 0 <29
pL 6 0 <56
pZ 0 0 <30
pH 0 6 <57
pZ 0 0 <31
pZ 0 0 <32
pL 6 0 <58
pD 6 0 <33
pH 0 6 <59
pU 0 6 <34
pH 0 6 <60
pD 6 0 <35
pH 0 6 <61
pU 0 6 <36
pH 0 6 <62
pD 6 0 <37
pH 0 6 <63
pU 0 6 <38
pH 0 6 <64
pD 6 0 <39
pH 0 6 <65
pU 0 6 <40
pH 0 6 <66
pD 6 0 <41
pH 0 6 <67
pU 0 6 <42
pH 0 6 <68
pD 6 0 <43
pH 0 6 <69
pU 0 6 <44
pH 0 6 <70
pD 6 0 <45
pH 0 6 <71
pU 0 6 <46
pH 0 6 <72
pD 6 0 <47
pH 0 6 <73
pU 0 6 <48
pH 0 6 <74
pD 6 0 <50
pZ 0 0 <49
pZZZZZZZZZZZZZZZZZZZZZZZZZZZZZZZZ 00000000000000000000000000000000 00000000000000000000000000000000 <0 
pZZZZ 0000 0000 <1 
pZZZZZZ 000000 000000 <2 
pLLLLLLLLLLLLLLLLLLLLLLLLLLLLLLLL 66666666666666666666666666666666 00000000000000000000000000000000 <3 
pZZZZZZZZZZZZZZZZZZZZZZZZZZZZZZZZZZZZZZZZZZZZZZZZZZZZZZZZZZZZZZZZZZZZZZZZZZZZZZZZZZZZZZZZZZZZZZZZZZZZZZZZZZZZZZZZZZZZZZZZZZZZZZZZ 00000000000000000000000000000000000000000000000000000000000000000000000000000000000000000000000000000000000000000000000000000000 00000000000000000000000000000000000000000000000000000000000000000000000000000000000000000000000000000000000000000000000000000000 <4 
pHHHH 0000 6666 <5 
pLLLLLLLLLLLLLLLLLLLLLLLLLLLLLLLL 66666666666666666666666666666666 00000000000000000000000000000000 <6 
pLLLLLLLLLLLLLLLLLLLLLLLLLLLLLLLL 66666666666666666666666666666666 00000000000000000000000000000000 <7 
pZZZZZZZZZZZZZZZZZZZZZZZZZZZZZZZZ 00000000000000000000000000000000 00000000000000000000000000000000 <8 
pLLLLLLLLLLLLLLLLLLLLLLLLLLLLLLLLLLLLLLLLLLLLLLLLLLLLLLLLLLLLLLLLLLLLLLLLLLLLLLLLLLLLLLLLLLLLLLLL 666666666666666666666666666666666666666666666666666666666666666666666666666666666666666666666666 000000000000000000000000000000000000000000000000000000000000000000000000000000000000000000000000 <9 
pLLLLLL 666666 000000 <10 
pLL 66 00 <11 
pLLLLLLLLLLLLLLL 666666666666666 000000000000000 <12 
pZZZZZZZZZZZZZZZZZZZZZZZZZZZZZZZZ 00000000000000000000000000000000 00000000000000000000000000000000 <13 
pZZZZZ 00000 00000 <14 
pZZZZZ 00000 00000 <15 
pLLLLL 66666 00000 <16 
pZZ 00 00 <17 
$end
#20
pU 0 6 <19
pU 0 6 <21
pD 6 0 <18
#40
pU 0 6 <18
pX 6 6 <57
pX 6 6 <58
pX 6 6 <73
pX 6 6 <68
pX 6 6 <67
pX 6 6 <64
pX 6 6 <74
pX 6 6 <51
pU 0 6 <33
pD 6 0 <34
pU 0 6 <35
pD 6 0 <36
pU 0 6 <37
pD 6 0 <38
pU 0 6 <39
pD 6 0 <40
pU 0 6 <41
pD 6 0 <42
pU 0 6 <43
pD 6 0 <44
pU 0 6 <45
pD 6 0 <46
pU 0 6 <47
pD 6 0 <48
pXXXXX 66666 66666 <16 
pLLLLLLLLXXLLLLLLLLLLLXXLXXLLLLLL 66666666666666666666666666666666 00000000660000000000066066000000 <6 
pLLLLLLLLLXLLLLLLLLLLLLLLLXLLLLLL 66666666666666666666666666666666 00000000060000000000000006000000 <7 
pXXXH 6660 6666 <5 
pXXXXXXXXXXXXXXXXXXXXXXXXXXXXLLLL 66666666666666666666666666666666 66666666666666666666666666660000 <3 
#60
pD 6 0 <18
#80
pU 0 6 <18
pX 6 6 <53
pX 6 6 <69
pX 6 6 <66
pX 6 6 <62
pX 6 6 <56
pD 6 0 <33
pU 0 6 <34
pD 6 0 <35
pU 0 6 <36
pD 6 0 <37
pU 0 6 <38
pD 6 0 <39
pU 0 6 <40
pD 6 0 <41
pU 0 6 <42
pD 6 0 <43
pU 0 6 <44
pD 6 0 <45
pU 0 6 <46
pD 6 0 <47
pU 0 6 <48
pXXXXXXXXXXXXXXXXXXXXXXXXXXXXXXXX 66666666666666666666666666666666 66666666666666666666666666666666 <6 
pXXXXXXXXXXXXXXXXXXXXXXXXXXXXXXXX 66666666666666666666666666666666 66666666666666666666666666666666 <7 
pXXXX 6666 6666 <5 
#100
pD 6 0 <18
#120
pU 0 6 <18
pX 6 6 <71
pX 6 6 <65
pX 6 6 <61
pX 6 6 <60
pX 6 6 <59
pX 6 6 <63
pX 6 6 <52
pU 0 6 <33
pD 6 0 <34
pU 0 6 <35
pD 6 0 <36
pU 0 6 <37
pD 6 0 <38
pU 0 6 <39
pD 6 0 <40
pU 0 6 <41
pD 6 0 <42
pU 0 6 <43
pD 6 0 <44
pU 0 6 <45
pD 6 0 <46
pU 0 6 <47
pD 6 0 <48
#140
pD 6 0 <18
#160
pU 0 6 <18
pX 6 6 <72
pX 6 6 <70
pD 6 0 <33
pU 0 6 <34
pD 6 0 <35
pU 0 6 <36
pD 6 0 <37
pU 0 6 <38
pD 6 0 <39
pU 0 6 <40
pD 6 0 <41
pU 0 6 <42
pD 6 0 <43
pU 0 6 <44
pD 6 0 <45
pU 0 6 <46
pD 6 0 <47
pU 0 6 <48
#180
pD 6 0 <18
#200
pU 0 6 <18
pU 0 6 <33
pD 6 0 <34
pU 0 6 <35
pD 6 0 <36
pU 0 6 <37
pD 6 0 <38
pU 0 6 <39
pD 6 0 <40
pU 0 6 <41
pD 6 0 <42
pU 0 6 <43
pD 6 0 <44
pU 0 6 <45
pD 6 0 <46
pU 0 6 <47
pD 6 0 <48
#220
pD 6 0 <18
#240
pU 0 6 <18
pD 6 0 <33
pU 0 6 <34
pD 6 0 <35
pU 0 6 <36
pD 6 0 <37
pU 0 6 <38
pD 6 0 <39
pU 0 6 <40
pD 6 0 <41
pU 0 6 <42
pD 6 0 <43
pU 0 6 <44
pD 6 0 <45
pU 0 6 <46
pD 6 0 <47
pU 0 6 <48
#260
pD 6 0 <18
#280
pU 0 6 <18
pU 0 6 <33
pD 6 0 <34
pU 0 6 <35
pD 6 0 <36
pU 0 6 <37
pD 6 0 <38
pU 0 6 <39
pD 6 0 <40
pU 0 6 <41
pD 6 0 <42
pU 0 6 <43
pD 6 0 <44
pU 0 6 <45
pD 6 0 <46
pU 0 6 <47
pD 6 0 <48
#300
pD 6 0 <18
#320
pU 0 6 <18
pD 6 0 <33
pU 0 6 <34
pD 6 0 <35
pU 0 6 <36
pD 6 0 <37
pU 0 6 <38
pD 6 0 <39
pU 0 6 <40
pD 6 0 <41
pU 0 6 <42
pD 6 0 <43
pU 0 6 <44
pD 6 0 <45
pU 0 6 <46
pD 6 0 <47
#340
pD 6 0 <18
#360
pU 0 6 <18
pU 0 6 <33
pD 6 0 <34
pU 0 6 <35
pD 6 0 <36
pU 0 6 <37
pD 6 0 <38
pU 0 6 <39
pD 6 0 <40
pU 0 6 <41
pD 6 0 <42
pU 0 6 <43
pD 6 0 <44
pU 0 6 <45
pD 6 0 <46
pU 0 6 <48
#380
pD 6 0 <18
#400
pU 0 6 <18
pD 6 0 <33
pU 0 6 <34
pD 6 0 <35
pU 0 6 <36
pD 6 0 <37
pU 0 6 <38
pD 6 0 <39
pU 0 6 <40
pD 6 0 <41
pU 0 6 <42
pD 6 0 <43
pU 0 6 <44
pD 6 0 <45
pU 0 6 <47
#420
pD 6 0 <18
#440
pU 0 6 <18
pU 0 6 <33
pD 6 0 <34
pU 0 6 <35
pD 6 0 <36
pU 0 6 <37
pD 6 0 <38
pU 0 6 <39
pD 6 0 <40
pU 0 6 <41
pD 6 0 <42
pU 0 6 <43
pD 6 0 <44
pU 0 6 <46
#460
pD 6 0 <18
#480
pU 0 6 <18
pD 6 0 <33
pU 0 6 <34
pD 6 0 <35
pU 0 6 <36
pD 6 0 <37
pU 0 6 <38
pD 6 0 <39
pU 0 6 <40
pD 6 0 <41
pU 0 6 <42
pD 6 0 <43
pU 0 6 <45
#500
pD 6 0 <18
#520
pU 0 6 <18
pU 0 6 <33
pD 6 0 <34
pU 0 6 <35
pD 6 0 <36
pU 0 6 <37
pD 6 0 <38
pU 0 6 <39
pD 6 0 <40
pU 0 6 <41
pD 6 0 <42
pU 0 6 <44
#540
pD 6 0 <18
#560
pU 0 6 <18
pD 6 0 <33
pU 0 6 <34
pD 6 0 <35
pU 0 6 <36
pD 6 0 <37
pU 0 6 <38
pD 6 0 <39
pU 0 6 <40
pD 6 0 <41
pU 0 6 <43
#580
pD 6 0 <18
#600
pU 0 6 <18
pU 0 6 <33
pD 6 0 <34
pU 0 6 <35
pD 6 0 <36
pU 0 6 <37
pD 6 0 <38
pU 0 6 <39
pD 6 0 <40
pU 0 6 <42
#620
pD 6 0 <18
#640
pU 0 6 <18
pD 6 0 <33
pU 0 6 <34
pD 6 0 <35
pU 0 6 <36
pD 6 0 <37
pU 0 6 <38
pD 6 0 <39
pU 0 6 <41
#660
pD 6 0 <18
#680
pU 0 6 <18
pU 0 6 <33
pD 6 0 <34
pU 0 6 <35
pD 6 0 <36
pU 0 6 <37
pD 6 0 <38
pU 0 6 <40
#700
pD 6 0 <18
#720
pU 0 6 <18
pD 6 0 <33
pU 0 6 <34
pD 6 0 <35
pU 0 6 <36
pD 6 0 <37
pU 0 6 <39
#740
pD 6 0 <18
#760
pU 0 6 <18
pU 0 6 <33
pD 6 0 <34
pU 0 6 <35
pD 6 0 <36
pU 0 6 <38
#780
pD 6 0 <18
#800
pU 0 6 <18
pD 6 0 <33
pU 0 6 <34
pD 6 0 <35
pU 0 6 <37
#820
pD 6 0 <18
#840
pU 0 6 <18
pU 0 6 <33
pD 6 0 <34
pU 0 6 <36
#860
pD 6 0 <18
#880
pU 0 6 <18
pD 6 0 <33
pU 0 6 <35
#900
pD 6 0 <18
#920
pU 0 6 <18
pU 0 6 <34
#940
pD 6 0 <18
#960
pU 0 6 <18
pU 0 6 <33
#980
pD 6 0 <18
#1000
pU 0 6 <18
#1020
pD 6 0 <18
#1040
pU 0 6 <18
pD 6 0 <48
#1060
pD 6 0 <18
#1080
pU 0 6 <18
pD 6 0 <47
pU 0 6 <48
#1100
pD 6 0 <18
#1120
pU 0 6 <18
pD 6 0 <46
pU 0 6 <47
#1140
pD 6 0 <18
#1160
pU 0 6 <18
pD 6 0 <45
pU 0 6 <46
pD 6 0 <48
#1180
pD 6 0 <18
#1200
pU 0 6 <18
pD 6 0 <44
pU 0 6 <45
pD 6 0 <47
#1220
pD 6 0 <18
#1240
pU 0 6 <18
pD 6 0 <43
pU 0 6 <44
pD 6 0 <46
#1260
pD 6 0 <18
#1280
pU 0 6 <18
pD 6 0 <42
pU 0 6 <43
pD 6 0 <45
#1300
pD 6 0 <18
#1320
pU 0 6 <18
pD 6 0 <41
pU 0 6 <42
pD 6 0 <44
pU 0 6 <48
#1340
pD 6 0 <18
#1360
pU 0 6 <18
pD 6 0 <40
pU 0 6 <41
pD 6 0 <43
pU 0 6 <47
#1380
pD 6 0 <18
#1400
pU 0 6 <18
pD 6 0 <39
pU 0 6 <40
pD 6 0 <42
pU 0 6 <46
#1420
pD 6 0 <18
#1440
pU 0 6 <18
pD 6 0 <38
pU 0 6 <39
pD 6 0 <41
pU 0 6 <45
#1460
pD 6 0 <18
#1480
pU 0 6 <18
pD 6 0 <37
pU 0 6 <38
pD 6 0 <40
pU 0 6 <44
#1500
pD 6 0 <18
#1520
pU 0 6 <18
pD 6 0 <36
pU 0 6 <37
pD 6 0 <39
pU 0 6 <43
#1540
pD 6 0 <18
#1560
pU 0 6 <18
pD 6 0 <35
pU 0 6 <36
pD 6 0 <38
pU 0 6 <42
#1580
pD 6 0 <18
#1600
pU 0 6 <18
pD 6 0 <34
pU 0 6 <35
pD 6 0 <37
pU 0 6 <41
#1620
pD 6 0 <18
#1640
pU 0 6 <18
pD 6 0 <33
pU 0 6 <34
pD 6 0 <36
pU 0 6 <40
#1660
pD 6 0 <18
#1680
pU 0 6 <18
pU 0 6 <33
pD 6 0 <35
pU 0 6 <39
#1700
pD 6 0 <18
#1720
pU 0 6 <18
pD 6 0 <34
pU 0 6 <38
#1740
pD 6 0 <18
#1760
pU 0 6 <18
pD 6 0 <33
pU 0 6 <37
pD 6 0 <48
#1780
pD 6 0 <18
#1800
pU 0 6 <18
pU 0 6 <36
pD 6 0 <47
#1820
pD 6 0 <18
#1840
pU 0 6 <18
pU 0 6 <35
pD 6 0 <46
#1860
pD 6 0 <18
#1880
pU 0 6 <18
pU 0 6 <34
pD 6 0 <45
pU 0 6 <48
#1900
pD 6 0 <18
#1920
pU 0 6 <18
pU 0 6 <33
pD 6 0 <44
pU 0 6 <47
pD 6 0 <48
#1940
pD 6 0 <18
#1960
pU 0 6 <18
pD 6 0 <43
pU 0 6 <46
pD 6 0 <47
#1980
pD 6 0 <18
#2000
pU 0 6 <18
pD 6 0 <42
pU 0 6 <45
pD 6 0 <46
#2020
pD 6 0 <18
#2040
pU 0 6 <18
pD 6 0 <41
pU 0 6 <44
pD 6 0 <45
pU 0 6 <48
#2060
pD 6 0 <18
#2080
pU 0 6 <18
pD 6 0 <40
pU 0 6 <43
pD 6 0 <44
pU 0 6 <47
pD 6 0 <48
#2100
pD 6 0 <18
#2120
pU 0 6 <18
pD 6 0 <39
pU 0 6 <42
pD 6 0 <43
pU 0 6 <46
pD 6 0 <47
#2140
pD 6 0 <18
#2160
pU 0 6 <18
pD 6 0 <38
pU 0 6 <41
pD 6 0 <42
pU 0 6 <45
pD 6 0 <46
pU 0 6 <48
#2180
pD 6 0 <18
#2200
pU 0 6 <18
pD 6 0 <37
pU 0 6 <40
pD 6 0 <41
pU 0 6 <44
pD 6 0 <45
pU 0 6 <47
pD 6 0 <48
#2220
pD 6 0 <18
#2240
pU 0 6 <18
pD 6 0 <36
pU 0 6 <39
pD 6 0 <40
pU 0 6 <43
pD 6 0 <44
pU 0 6 <46
pD 6 0 <47
#2260
pD 6 0 <18
#2280
pU 0 6 <18
pD 6 0 <35
pU 0 6 <38
pD 6 0 <39
pU 0 6 <42
pD 6 0 <43
pU 0 6 <45
pD 6 0 <46
pU 0 6 <48
#2300
pD 6 0 <18
#2320
pU 0 6 <18
pD 6 0 <34
pU 0 6 <37
pD 6 0 <38
pU 0 6 <41
pD 6 0 <42
pU 0 6 <44
pD 6 0 <45
pU 0 6 <47
#2340
pD 6 0 <18
#2360
pU 0 6 <18
pD 6 0 <33
pU 0 6 <36
pD 6 0 <37
pU 0 6 <40
pD 6 0 <41
pU 0 6 <43
pD 6 0 <44
pU 0 6 <46
#2380
pD 6 0 <18
#2400
pU 0 6 <18
pU 0 6 <35
pD 6 0 <36
pU 0 6 <39
pD 6 0 <40
pU 0 6 <42
pD 6 0 <43
pU 0 6 <45
#2420
pD 6 0 <18
#2440
pU 0 6 <18
pU 0 6 <34
pD 6 0 <35
pU 0 6 <38
pD 6 0 <39
pU 0 6 <41
pD 6 0 <42
pU 0 6 <44
#2460
pD 6 0 <18
#2480
pU 0 6 <18
pU 0 6 <33
pD 6 0 <34
pU 0 6 <37
pD 6 0 <38
pU 0 6 <40
pD 6 0 <41
pU 0 6 <43
pD 6 0 <48
#2500
pD 6 0 <18
#2520
pU 0 6 <18
pD 6 0 <33
pU 0 6 <36
pD 6 0 <37
pU 0 6 <39
pD 6 0 <40
pU 0 6 <42
pD 6 0 <47
pU 0 6 <48
#2540
pD 6 0 <18
#2560
pU 0 6 <18
pU 0 6 <35
pD 6 0 <36
pU 0 6 <38
pD 6 0 <39
pU 0 6 <41
pD 6 0 <46
pU 0 6 <47
pD 6 0 <48
#2580
pD 6 0 <18
#2600
pU 0 6 <18
pU 0 6 <34
pD 6 0 <35
pU 0 6 <37
pD 6 0 <38
pU 0 6 <40
pD 6 0 <45
pU 0 6 <46
pD 6 0 <47
#2620
pD 6 0 <18
#2640
pU 0 6 <18
pU 0 6 <33
pD 6 0 <34
pU 0 6 <36
pD 6 0 <37
pU 0 6 <39
pD 6 0 <44
pU 0 6 <45
pD 6 0 <46
pU 0 6 <48
#2660
pD 6 0 <18
#2680
pU 0 6 <18
pD 6 0 <33
pU 0 6 <35
pD 6 0 <36
pU 0 6 <38
pD 6 0 <43
pU 0 6 <44
pD 6 0 <45
pU 0 6 <47
#2700
pD 6 0 <18
#2720
pU 0 6 <18
pU 0 6 <34
pD 6 0 <35
pU 0 6 <37
pD 6 0 <42
pU 0 6 <43
pD 6 0 <44
pU 0 6 <46
pD 6 0 <48
#2740
pD 6 0 <18
#2760
pU 0 6 <18
pU 0 6 <33
pD 6 0 <34
pU 0 6 <36
pD 6 0 <41
pU 0 6 <42
pD 6 0 <43
pU 0 6 <45
pD 6 0 <47
pU 0 6 <48
#2780
pD 6 0 <18
#2800
pU 0 6 <18
pD 6 0 <33
pU 0 6 <35
pD 6 0 <40
pU 0 6 <41
pD 6 0 <42
pU 0 6 <44
pD 6 0 <46
pU 0 6 <47
pD 6 0 <48
#2820
pD 6 0 <18
#2840
pU 0 6 <18
pU 0 6 <34
pD 6 0 <39
pU 0 6 <40
pD 6 0 <41
pU 0 6 <43
pD 6 0 <45
pU 0 6 <46
pD 6 0 <47
pU 0 6 <48
#2860
pD 6 0 <18
#2880
pU 0 6 <18
pU 0 6 <33
pD 6 0 <38
pU 0 6 <39
pD 6 0 <40
pU 0 6 <42
pD 6 0 <44
pU 0 6 <45
pD 6 0 <46
pU 0 6 <47
#2900
pD 6 0 <18
#2920
pU 0 6 <18
pD 6 0 <37
pU 0 6 <38
pD 6 0 <39
pU 0 6 <41
pD 6 0 <43
pU 0 6 <44
pD 6 0 <45
pU 0 6 <46
#2940
pD 6 0 <18
#2960
pU 0 6 <18
pD 6 0 <36
pU 0 6 <37
pD 6 0 <38
pU 0 6 <40
pD 6 0 <42
pU 0 6 <43
pD 6 0 <44
pU 0 6 <45
pD 6 0 <48
#2980
pD 6 0 <18
#3000
pU 0 6 <18
pD 6 0 <35
pU 0 6 <36
pD 6 0 <37
pU 0 6 <39
pD 6 0 <41
pU 0 6 <42
pD 6 0 <43
pU 0 6 <44
pD 6 0 <47
#3020
pD 6 0 <18
#3040
pU 0 6 <18
pD 6 0 <34
pU 0 6 <35
pD 6 0 <36
pU 0 6 <38
pD 6 0 <40
pU 0 6 <41
pD 6 0 <42
pU 0 6 <43
pD 6 0 <46
#3060
pD 6 0 <18
#3080
pU 0 6 <18
pD 6 0 <33
pU 0 6 <34
pD 6 0 <35
pU 0 6 <37
pD 6 0 <39
pU 0 6 <40
pD 6 0 <41
pU 0 6 <42
pD 6 0 <45
#3100
pD 6 0 <18
#3120
pU 0 6 <18
pU 0 6 <33
pD 6 0 <34
pU 0 6 <36
pD 6 0 <38
pU 0 6 <39
pD 6 0 <40
pU 0 6 <41
pD 6 0 <44
#3140
pD 6 0 <18
#3160
pU 0 6 <18
pD 6 0 <33
pU 0 6 <35
pD 6 0 <37
pU 0 6 <38
pD 6 0 <39
pU 0 6 <40
pD 6 0 <43
#3180
pD 6 0 <18
#3200
pU 0 6 <18
pU 0 6 <34
pD 6 0 <36
pU 0 6 <37
pD 6 0 <38
pU 0 6 <39
pD 6 0 <42
pU 0 6 <48
#3220
pD 6 0 <18
#3240
pU 0 6 <18
pU 0 6 <33
pD 6 0 <35
pU 0 6 <36
pD 6 0 <37
pU 0 6 <38
pD 6 0 <41
pU 0 6 <47
pD 6 0 <48
#3260
pD 6 0 <18
#3280
pU 0 6 <18
pD 6 0 <34
pU 0 6 <35
pD 6 0 <36
pU 0 6 <37
pD 6 0 <40
pU 0 6 <46
pD 6 0 <47
pU 0 6 <48
#3300
pD 6 0 <18
#3320
pU 0 6 <18
pD 6 0 <33
pU 0 6 <34
pD 6 0 <35
pU 0 6 <36
pD 6 0 <39
pU 0 6 <45
pD 6 0 <46
pU 0 6 <47
pD 6 0 <48
#3340
pD 6 0 <18
#3360
pU 0 6 <18
pU 0 6 <33
pD 6 0 <34
pU 0 6 <35
pD 6 0 <38
pU 0 6 <44
pD 6 0 <45
pU 0 6 <46
pD 6 0 <47
#3380
pD 6 0 <18
#3400
pU 0 6 <18
pD 6 0 <33
pU 0 6 <34
pD 6 0 <37
pU 0 6 <43
pD 6 0 <44
pU 0 6 <45
pD 6 0 <46
pU 0 6 <48
#3420
pD 6 0 <18
#3440
pU 0 6 <18
pU 0 6 <33
pD 6 0 <36
pU 0 6 <42
pD 6 0 <43
pU 0 6 <44
pD 6 0 <45
pU 0 6 <47
#3460
pD 6 0 <18
#3480
pU 0 6 <18
pD 6 0 <35
pU 0 6 <41
pD 6 0 <42
pU 0 6 <43
pD 6 0 <44
pU 0 6 <46
#3500
pD 6 0 <18
#3520
pU 0 6 <18
pD 6 0 <34
pU 0 6 <40
pD 6 0 <41
pU 0 6 <42
pD 6 0 <43
pU 0 6 <45
pD 6 0 <48
#3540
pD 6 0 <18
#3560
pU 0 6 <18
pD 6 0 <33
pU 0 6 <39
pD 6 0 <40
pU 0 6 <41
pD 6 0 <42
pU 0 6 <44
pD 6 0 <47
#3580
pD 6 0 <18
#3600
pU 0 6 <18
pU 0 6 <38
pD 6 0 <39
pU 0 6 <40
pD 6 0 <41
pU 0 6 <43
pD 6 0 <46
pU 0 6 <48
#3620
pD 6 0 <18
#3640
pU 0 6 <18
pU 0 6 <37
pD 6 0 <38
pU 0 6 <39
pD 6 0 <40
pU 0 6 <42
pD 6 0 <45
pU 0 6 <47
pD 6 0 <48
#3660
pD 6 0 <18
#3680
pU 0 6 <18
pU 0 6 <36
pD 6 0 <37
pU 0 6 <38
pD 6 0 <39
pU 0 6 <41
pD 6 0 <44
pU 0 6 <46
pD 6 0 <47
#3700
pD 6 0 <18
#3720
pU 0 6 <18
pU 0 6 <35
pD 6 0 <36
pU 0 6 <37
pD 6 0 <38
pU 0 6 <40
pD 6 0 <43
pU 0 6 <45
pD 6 0 <46
pU 0 6 <48
#3740
pD 6 0 <18
#3760
pU 0 6 <18
pU 0 6 <34
pD 6 0 <35
pU 0 6 <36
pD 6 0 <37
pU 0 6 <39
pD 6 0 <42
pU 0 6 <44
pD 6 0 <45
pU 0 6 <47
#3780
pD 6 0 <18
#3800
pU 0 6 <18
pU 0 6 <33
pD 6 0 <34
pU 0 6 <35
pD 6 0 <36
pU 0 6 <38
pD 6 0 <41
pU 0 6 <43
pD 6 0 <44
pU 0 6 <46
#3820
pD 6 0 <21
pD 6 0 <18
#3840
pU 0 6 <21
pU 0 6 <18
pD 6 0 <33
pU 0 6 <34
pD 6 0 <35
pU 0 6 <37
pD 6 0 <40
pU 0 6 <42
pD 6 0 <43
pU 0 6 <45
pD 6 0 <48
#3860
pD 6 0 <18
#3880
pU 0 6 <18
pU 0 6 <33
pD 6 0 <34
pU 0 6 <36
pD 6 0 <39
pU 0 6 <41
pD 6 0 <42
pU 0 6 <44
pD 6 0 <47
#3900
pD 6 0 <18
#3920
pU 0 6 <18
pD 6 0 <33
pU 0 6 <35
pD 6 0 <38
pU 0 6 <40
pD 6 0 <41
pU 0 6 <43
pD 6 0 <46
#3940
pD 6 0 <18
#3960
pU 0 6 <18
pU 0 6 <34
pD 6 0 <37
pU 0 6 <39
pD 6 0 <40
pU 0 6 <42
pD 6 0 <45
#3980
pD 6 0 <18
#4000
pU 0 6 <18
pU 0 6 <33
pD 6 0 <36
pU 0 6 <38
pD 6 0 <39
pU 0 6 <41
pD 6 0 <44
pU 0 6 <48
#4020
pD 6 0 <18
#4040
pU 0 6 <18
pD 6 0 <35
pU 0 6 <37
pD 6 0 <38
pU 0 6 <40
pD 6 0 <43
pU 0 6 <47
#4060
pD 6 0 <18
#4080
pU 0 6 <18
pD 6 0 <34
pU 0 6 <36
pD 6 0 <37
pU 0 6 <39
pD 6 0 <42
pU 0 6 <46
#4100
pD 6 0 <18
#4120
pU 0 6 <18
pD 6 0 <33
pU 0 6 <35
pD 6 0 <36
pU 0 6 <38
pD 6 0 <41
pU 0 6 <45
#4140
pD 6 0 <18
#4160
pU 0 6 <18
pU 0 6 <34
pD 6 0 <35
pU 0 6 <37
pD 6 0 <40
pU 0 6 <44
#4180
pD 6 0 <18
#4200
pU 0 6 <18
pU 0 6 <33
pD 6 0 <34
pU 0 6 <36
pD 6 0 <39
pU 0 6 <43
pD 6 0 <48
#4220
pD 6 0 <18
#4240
pU 0 6 <18
pD 6 0 <33
pU 0 6 <35
pD 6 0 <38
pU 0 6 <42
pD 6 0 <47
pU 0 6 <48
#4260
pD 6 0 <18
#4280
pU 0 6 <18
pU 0 6 <34
pD 6 0 <37
pU 0 6 <41
pD 6 0 <46
pU 0 6 <47
pD 6 0 <48
#4300
pD 6 0 <18
#4320
pU 0 6 <18
pU 0 6 <33
pD 6 0 <36
pU 0 6 <40
pD 6 0 <45
pU 0 6 <46
pD 6 0 <47
#4340
pD 6 0 <18
#4360
pU 0 6 <18
pD 6 0 <35
pU 0 6 <39
pD 6 0 <44
pU 0 6 <45
pD 6 0 <46
#4380
pD 6 0 <18
#4400
pU 0 6 <18
pD 6 0 <34
pU 0 6 <38
pD 6 0 <43
pU 0 6 <44
pD 6 0 <45
pU 0 6 <48
#4420
pD 6 0 <18
#4440
pU 0 6 <18
pD 6 0 <33
pU 0 6 <37
pD 6 0 <42
pU 0 6 <43
pD 6 0 <44
pU 0 6 <47
pD 6 0 <48
#4460
pD 6 0 <18
#4480
pU 0 6 <18
pU 0 6 <36
pD 6 0 <41
pU 0 6 <42
pD 6 0 <43
pU 0 6 <46
pD 6 0 <47
#4500
pD 6 0 <18
#4520
pU 0 6 <18
pU 0 6 <35
pD 6 0 <40
pU 0 6 <41
pD 6 0 <42
pU 0 6 <45
pD 6 0 <46
#4540
pD 6 0 <18
#4560
pU 0 6 <18
pU 0 6 <34
pD 6 0 <39
pU 0 6 <40
pD 6 0 <41
pU 0 6 <44
pD 6 0 <45
pU 0 6 <48
#4580
pD 6 0 <18
#4600
pU 0 6 <18
pU 0 6 <33
pD 6 0 <38
pU 0 6 <39
pD 6 0 <40
pU 0 6 <43
pD 6 0 <44
pU 0 6 <47
pD 6 0 <48
#4620
pD 6 0 <18
